[
    {
        "title": "Toad Warrior",
        "year": 1996,
        "cast": [
            "Scott Shaw",
            "Joe Estevez",
            "Sandra Purpuro"
        ],
        "poster_img_url": "https://upload.wikimedia.org/wikipedia/en/7/73/Max_Hell_Frog_Warrior.jpg",
        "genres": [
            "Action",
            "Science Fiction"
        ]
    },
    {
        "title": "Against the Law",
        "year": 1997,
        "cast": [
            "Nancy Allen",
            "Nick Mancuso"
        ],
        "poster_img_url": "https://upload.wikimedia.org/wikipedia/en/5/57/AgainsttheLawNancyAllenGrieco.jpg",
        "genres": [
            "Action"
        ]
    },
    {
        "title": "Batman and Robin",
        "year": 1997,
        "cast": [
            "Arnold Schwarzenegger",
            "George Clooney",
            "Chris O'Donnell",
            "Uma Thurman",
            "Alicia Silverstone",
            "John Glover",
            "Elle Macpherson"
        ],
        "poster_img_url": "https://upload.wikimedia.org/wikipedia/en/3/37/Batman_%26_Robin_poster.jpg",
        "genres": [
            "Action",
            "Superhero"
        ]
    },
    {
        "title": "Demolition University",
        "year": 1997,
        "cast": [
            "Corey Haim",
            "Ami Dolenz",
            "Laraine Newman"
        ],
        "poster_img_url": "https://m.media-amazon.com/images/M/MV5BMTY0ODcwOTI4Nl5BMl5BanBnXkFtZTgwNDc0NTAwNzE@._V1_UX32_CR0,0,32,44_AL_.jpg",
        "genres": [
            "Action"
        ]
    },
    {
        "title": "Double Team",
        "year": 1997,
        "cast": [
            "Jean-Claude Van Damme",
            "Dennis Rodman",
            "Mickey Rourke"
        ],
        "poster_img_url": "https://upload.wikimedia.org/wikipedia/en/d/d6/Double_team_ver1.jpg",
        "genres": [
            "Action"
        ]
    },
    {
        "title": "Snow White & the Huntsman",
        "year": 2012,
        "cast": [
            "Kristen Stewart",
            "Charlize Theron",
            "Chris Hemsworth",
            "Sam Claflin",
            "Ian McShane",
            "Bob Hoskins",
            "Ray Winstone",
            "Nick Frost",
            "Toby Jones",
            "Johnny Harris",
            "Eddie Marsan",
            "Brian Gleeson",
            "Lily Cole",
            "Sam Spruell",
            "Vincent Regan",
            "Noah Huntley"
        ],
        "poster_img_url": "https://upload.wikimedia.org/wikipedia/en/8/8f/Snow_White_and_the_Huntsman_Poster.jpg",
        "genres": [
            "Action",
            "Fantasy"
        ]
    },
    {
        "title": "Charlie Countryman",
        "year": 2013,
        "cast": [
            "Shia LaBeouf",
            "Evan Rachel Wood",
            "Mads Mikkelsen",
            "Rupert Grint",
            "Vincent D'Onofrio",
            "Melissa Leo"
        ],
        "poster_img_url": "https://upload.wikimedia.org/wikipedia/en/4/4b/Charlie_Countryman_%282013%29.jpg",
        "genres": [
            "Action",
            "Romance",
            "Comedy"
        ]
    },
    {
        "title": "A Dark Truth",
        "year": 2013,
        "cast": [
            "Andy García",
            "Kim Coates",
            "Deborah Kara Unger",
            "Kevin Durand",
            "Lara Daans",
            "Devon Bostick",
            "Steven Bauer",
            "Al Sapienza",
            "Julio Mechoso",
            "Eva Longoria",
            "Forest Whitaker"
        ],
        "poster_img_url": "https://upload.wikimedia.org/wikipedia/en/2/2c/A_Dark_Truth.jpg",
        "genres": [
            "Action",
            "Thriller"
        ]
    },
    {
        "title": "Kick-Ass 2",
        "year": 2013,
        "cast": [
            "Aaron Taylor-Johnson",
            "Christopher Mintz-Plasse",
            "Chloë Grace Moretz",
            "Jim Carrey"
        ],
        "poster_img_url": "https://upload.wikimedia.org/wikipedia/en/4/44/Kick-Ass_2_International_Poster.jpg",
        "genres": [
            "Action",
            "Comedy",
            "Superhero"
        ]
    },
    {
        "title": "Officer Down",
        "year": 2013,
        "cast": [
            "Stephen Dorff",
            "Dominic Purcell",
            "AnnaLynne McCord",
            "David Boreanaz",
            "Soulja Boy",
            "Stephen Lang",
            "James Woods"
        ],
        "poster_img_url": "https://upload.wikimedia.org/wikipedia/en/a/a1/Officer_Down_poster.jpg",
        "genres": [
            "Action",
            "Crime"
        ]
    },
    {
        "title": "Oz the Great and Powerful",
        "year": 2013,
        "cast": [
            "James Franco",
            "Mila Kunis",
            "Rachel Weisz",
            "Michelle Williams",
            "Zach Braff",
            "Bill Cobbs",
            "Joey King",
            "(voice)",
            "Tony Cox"
        ],
        "poster_img_url": "https://upload.wikimedia.org/wikipedia/en/5/52/Oz_-_The_Great_and_Powerful_Poster.jpg",
        "genres": [
            "Adventure",
            "Fantasy"
        ]
    },
    {
        "title": "Percy Jackson: Sea of Monsters",
        "year": 2013,
        "cast": [
            "Logan Lerman",
            "Brandon T. Jackson",
            "Alexandra Daddario",
            "Leven Rambin",
            "Jake Abel",
            "Douglas Smith",
            "Stanley Tucci",
            "Nathan Fillion"
        ],
        "poster_img_url": "https://upload.wikimedia.org/wikipedia/en/a/a9/Percy-Jackson-Sea-poster.jpg",
        "genres": [
            "Adventure",
            "Fantasy"
        ]
    },
    {
        "title": "The Smurfs 2",
        "year": 2013,
        "cast": [
            "Neil Patrick Harris",
            "Jayma Mays",
            "Hank Azaria",
            "Tim Gunn",
            "Brendan Gleeson",
            "Katy Perry",
            "Jonathan Winters",
            "Alan Cumming",
            "Fred Armisen",
            "George Lopez",
            "Anton Yelchin",
            "John Oliver",
            "Christina Ricci",
            "J. B. Smoove",
            "Frank Welker"
        ],
        "poster_img_url": "https://upload.wikimedia.org/wikipedia/en/1/19/The_Smurfs_2_poster.jpg",
        "genres": [
            "Adventure",
            "Family"
        ]
    },
    {
        "title": "Star Trek Into Darkness",
        "year": 2013,
        "cast": [
            "John Cho",
            "Benedict Cumberbatch",
            "Alice Eve",
            "Bruce Greenwood",
            "Simon Pegg",
            "Chris Pine",
            "Zachary Quinto",
            "Zoe Saldana",
            "Karl Urban",
            "Peter Weller",
            "Anton Yelchin"
        ],
        "poster_img_url": "https://upload.wikimedia.org/wikipedia/en/5/50/StarTrekIntoDarkness_FinalUSPoster.jpg",
        "genres": [
            "Action",
            "Adventure",
            "Science Fiction"
        ]
    },
    {
        "title": "World War Z",
        "year": 2013,
        "cast": [
            "Brad Pitt",
            "Mireille Enos",
            "James Badge Dale",
            "Matthew Fox"
        ],
        "poster_img_url": "https://upload.wikimedia.org/wikipedia/en/d/dc/World_War_Z_poster.jpg",
        "genres": [
            "Action",
            "Adventure"
        ]
    },
    {
        "title": "Mr. Peabody & Sherman",
        "year": 2014,
        "cast": [
            "Ty Burrell",
            "Max Charles",
            "Ariel Winter",
            "Leslie Mann"
        ],
        "poster_img_url": "https://upload.wikimedia.org/wikipedia/en/5/58/Mr_Peabody_%26_Sherman_Poster.JPG",
        "genres": [
            "Adventure"
        ]
    },
    {
        "title": "Planes: Fire & Rescue",
        "year": 2014,
        "cast": [
            "Dane Cook",
            "Stacy Keach",
            "Brad Garrett",
            "Danny Mann"
        ],
        "poster_img_url": "https://upload.wikimedia.org/wikipedia/en/c/cc/Planes_Fire_%26_Rescue_poster.jpg",
        "genres": [
            "Adventure"
        ]
    },
    {
        "title": "The Book of Life",
        "year": 2014,
        "cast": [
            "Channing Tatum",
            "Zoe Saldana",
            "Diego Luna",
            "Ice Cube"
        ],
        "poster_img_url": "https://upload.wikimedia.org/wikipedia/en/6/61/The_Book_of_Life_%282014_film%29_poster.jpg",
        "genres": [
            "Animated",
            "Adventure"
        ]
    },
    {
        "title": "The Hunger Games: Mockingjay - Part 1",
        "year": 2014,
        "cast": [
            "Josh Hutcherson",
            "Jennifer Lawrence",
            "Liam Hemsworth",
            "Donald Sutherland"
        ],
        "poster_img_url": "https://upload.wikimedia.org/wikipedia/en/6/63/MockingjayPart1Poster3.jpg",
        "genres": [
            "Adventure"
        ]
    },
    {
        "title": "The SpongeBob Movie: Sponge Out of Water",
        "year": 2015,
        "cast": [
            "Antonio Banderas",
            "Tom Kenny",
            "Clancy Brown",
            "Rodger Bumpass"
        ],
        "poster_img_url": "https://upload.wikimedia.org/wikipedia/en/5/54/The_SpongeBob_Movie%2C_Sponge_Out_of_Water_%282015_film%29.jpg",
        "genres": [
            "Animated",
            "Adventure"
        ]
    },
    {
        "title": "Pixels",
        "year": 2015,
        "cast": [
            "Adam Sandler",
            "Kevin James",
            "Peter Dinklage",
            "Josh Gad"
        ],
        "poster_img_url": "https://upload.wikimedia.org/wikipedia/en/f/f0/PixelsOfficialPoster.jpg",
        "genres": [
            "Animated",
            "Comedy"
        ]
    },
    {
        "title": "The Good Dinosaur",
        "year": 2015,
        "cast": [
            "Lucas Neff",
            "John Lithgow",
            "Neil Patrick Harris",
            "Judy Greer"
        ],
        "poster_img_url": "https://upload.wikimedia.org/wikipedia/en/8/80/The_Good_Dinosaur_poster.jpg",
        "genres": [
            "Animated"
        ]
    },
    {
        "title": "Isle of Dogs",
        "year": 2018,
        "cast": [
            "Bryan Cranston",
            "Edward Norton",
            "Bill Murray",
            "Jeff Goldblum",
            "Bob Balaban",
            "Greta Gerwig",
            "Frances McDormand",
            "Courtney B. Vance",
            "Fisher Stevens",
            "Harvey Keitel",
            "Liev Schreiber",
            "Scarlett Johansson",
            "Tilda Swinton",
            "F. Murray Abraham",
            "Frank Wood"
        ],
        "poster_img_url": "https://upload.wikimedia.org/wikipedia/en/2/23/IsleOfDogsFirstLook.jpg",
        "genres": [
            "Animated",
            "Comedy"
        ]
    },
    {
        "title": "Sherlock Gnomes",
        "year": 2018,
        "cast": [
            "James McAvoy",
            "Emily Blunt",
            "Johnny Depp",
            "Chiwetel Ejiofor",
            "Mary J. Blige",
            "Michael Caine",
            "Maggie Smith",
            "Ashley Jensen",
            "Matt Lucas",
            "Stephen Merchant",
            "Julie Walters",
            "Richard Wilson"
        ],
        "poster_img_url": "https://upload.wikimedia.org/wikipedia/en/2/25/Sherlock_Gnomes.png",
        "genres": [
            "Animated",
            "Romance",
            "Comedy",
            "Mystery",
            "Family"
        ]
    },
    {
        "title": "Anastasia",
        "year": 1997,
        "cast": [
            "Meg Ryan",
            "John Cusack",
            "Kelsey Grammer",
            "Hank Azaria",
            "Christopher Lloyd",
            "Angela Lansbury",
            "(voices)"
        ],
        "poster_img_url": "https://upload.wikimedia.org/wikipedia/en/3/36/Anastasia-don-bluth.jpg",
        "genres": [
            "Animated"
        ]
    },
    {
        "title": "Beauty and the Beast: The Enchanted Christmas",
        "year": 1997,
        "cast": [],
        "poster_img_url": "https://upload.wikimedia.org/wikipedia/en/2/2e/Beauty_and_the_Beast_The_Enchanted_Christmas_original_vhs.jpg",
        "genres": [
            "Animated"
        ]
    },
    {
        "title": "Madagascar",
        "year": 2005,
        "cast": [
            "Ben Stiller",
            "Chris Rock",
            "David Schwimmer",
            "Jada Pinkett Smith"
        ],
        "poster_img_url": "https://upload.wikimedia.org/wikipedia/en/3/36/Madagascar_Theatrical_Poster.jpg",
        "genres": [
            "Animated",
            "Comedy"
        ]
    },
    {
        "title": "Pooh's Heffalump Movie",
        "year": 2005,
        "cast": [
            "Jim Cummings",
            "John Fiedler",
            "Kath Soucie"
        ],
        "poster_img_url": "https://upload.wikimedia.org/wikipedia/en/5/55/Poohs_heffalump_movie.jpg",
        "genres": [
            "Animated"
        ]
    },
    {
        "title": "Walk the Line",
        "year": 2005,
        "cast": [
            "Joaquin Phoenix",
            "Reese Witherspoon"
        ],
        "poster_img_url": "https://upload.wikimedia.org/wikipedia/en/5/5a/Walk_the_line_poster.jpg",
        "genres": [
            "Biography"
        ]
    },
    {
        "title": "The World's Fastest Indian",
        "year": 2005,
        "cast": [
            "Anthony Hopkins",
            "Diane Ladd",
            "Jessica Cauffiel"
        ],
        "poster_img_url": "https://upload.wikimedia.org/wikipedia/en/6/68/Worlds_fastest_indian.jpg",
        "genres": [
            "Biography"
        ]
    },
    {
        "title": "Amazing Grace",
        "year": 2006,
        "cast": [
            "Ioan Gruffudd"
        ],
        "poster_img_url": "https://upload.wikimedia.org/wikipedia/en/8/87/Amazinggraceposter.jpg",
        "genres": [
            "Biography"
        ]
    },
    {
        "title": "Color of the Cross",
        "year": 2006,
        "cast": [
            "Jean-Claude La Marre",
            "Debbi Morgan",
            "Elya Baskin"
        ],
        "poster_img_url": "https://upload.wikimedia.org/wikipedia/en/d/dd/Color_of_the_cross.jpg",
        "genres": [
            "Biography"
        ]
    },
    {
        "title": "Factory Girl",
        "year": 2006,
        "cast": [
            "Sienna Miller",
            "Hayden Christensen",
            "Jimmy Fallon"
        ],
        "poster_img_url": "https://upload.wikimedia.org/wikipedia/en/9/9a/Factory_girl.jpg",
        "genres": [
            "Biography"
        ]
    },
    {
        "title": "Soul Surfer",
        "year": 2011,
        "cast": [
            "AnnaSophia Robb",
            "Helen Hunt",
            "Lorraine Nicholson",
            "Dennis Quaid",
            "Carrie Underwood"
        ],
        "poster_img_url": "https://upload.wikimedia.org/wikipedia/en/1/1d/Soul_Surfer_Poster.jpg",
        "genres": [
            "Biography",
            "Drama"
        ]
    },
    {
        "title": "Chasing Mavericks",
        "year": 2012,
        "cast": [
            "Gerard Butler",
            "Jonny Weston",
            "Elisabeth Shue",
            "Abigail Spencer",
            "Leven Rambin",
            "Taylor Handley",
            "Scott Eastwood",
            "Greg Long",
            "Peter Mel",
            "Zach Wormhoudt"
        ],
        "poster_img_url": "https://upload.wikimedia.org/wikipedia/en/9/91/Chasing_Mavericks_Poster.jpg",
        "genres": [
            "Biography",
            "Drama"
        ]
    },
    {
        "title": "Lincoln",
        "year": 2012,
        "cast": [
            "Daniel Day-Lewis",
            "Sally Field",
            "David Strathairn",
            "Joseph Gordon-Levitt",
            "James Spader",
            "Hal Holbrook",
            "Tommy Lee Jones"
        ],
        "poster_img_url": "https://upload.wikimedia.org/wikipedia/en/6/6a/Lincoln_2012_Teaser_Poster.jpg",
        "genres": [
            "Biography",
            "Drama"
        ]
    },
    {
        "title": "Marley",
        "year": 2012,
        "cast": [
            "Bob Marley"
        ],
        "poster_img_url": "https://upload.wikimedia.org/wikipedia/en/7/7d/Marley_%282012_documentary_film%29_poster.jpg",
        "genres": [
            "Biography",
            "Documentary"
        ]
    },
    {
        "title": "Justin Bieber's Believe",
        "year": 2013,
        "cast": [
        ],
        "poster_img_url": "https://upload.wikimedia.org/wikipedia/en/7/75/Justin_Bieber%27s_Believe_movie_poster.jpg",
        "genres": [
            "Biography",
            "Documentary"
        ]
    },
    {
        "title": "Kevin Hart: Let Me Explain",
        "year": 2013,
        "cast": [
            "Kevin Hart"
        ],
        "poster_img_url": "https://upload.wikimedia.org/wikipedia/en/e/e7/Kevin_Hart_Let_Me_Explain.jpg",
        "genres": [
            "Comedy",
            "Documentary"
        ]
    },
    {
        "title": "John Dies at the End",
        "year": 2013,
        "cast": [
            "Chase Williamson",
            "Rob Mayes",
            "Paul Giamatti",
            "Clancy Brown",
            "Glynn Turman",
            "Doug Jones",
            "Daniel Roebuck"
        ],
        "poster_img_url": "https://upload.wikimedia.org/wikipedia/en/8/8e/John_dies_at_the_end_poster.jpg",
        "genres": [
            "Comedy",
            "Horror"
        ]
    },
    {
        "title": "Jay & Silent Bob's Super Groovy Cartoon Movie",
        "year": 2013,
        "cast": [
            "Jason Mewes",
            "Kevin Smith",
            "Eliza Dushku",
            "Tara Strong",
            "Ralph Garman",
            "Neil Gaiman"
        ],
        "poster_img_url": "https://upload.wikimedia.org/wikipedia/en/f/f7/Jay_and_silent_bob_cartoon_movie_poster.jpg",
        "genres": [
            "Animated",
            "Comedy"
        ]
    },
    {
        "title": "Veronica Mars",
        "year": 2014,
        "cast": [
            "Kristen Bell",
            "Jason Dohring",
            "Krysten Ritter",
            "Ryan Hansen"
        ],
        "poster_img_url": "https://upload.wikimedia.org/wikipedia/en/5/57/Veronica_Mars_Film_Poster.jpg",
        "genres": [
            "Comedy",
            "Drama"
        ]
    },
    {
        "title": "Cold in July",
        "year": 2014,
        "cast": [
            "Michael C. Hall",
            "Sam Shepard",
            "Don Johnson",
            "Vinessa Shaw"
        ],
        "poster_img_url": "https://upload.wikimedia.org/wikipedia/en/b/b0/Moviepostercoldinjuly.jpg",
        "genres": [
            "Crime",
            "Drama"
        ]
    },
    {
        "title": "Rage",
        "year": 2014,
        "cast": [
            "Nicolas Cage",
            "Peter Stormare",
            "Danny Glover",
            "Max Ryan"
        ],
        "poster_img_url": "https://upload.wikimedia.org/wikipedia/en/0/06/Rage2014film.jpg",
        "genres": [
            "Crime",
            "Thriller"
        ]
    },
    {
        "title": "Cymbeline",
        "year": 2015,
        "cast": [
            "Ed Harris",
            "Milla Jovovich",
            "Ethan Hawke",
            "John Leguizamo"
        ],
        "poster_img_url": "https://upload.wikimedia.org/wikipedia/en/d/dc/Cymbeline_%28film%29.jpg",
        "genres": [
            "Crime"
        ]
    },
    {
        "title": "Dope",
        "year": 2015,
        "cast": [
            "Shameik Moore",
            "Tony Revolori",
            "Kiersey Clemons"
        ],
        "poster_img_url": "https://upload.wikimedia.org/wikipedia/en/d/d2/DopeTeaserPoster.jpg",
        "genres": [
            "Crime",
            "Comedy",
            "Drama"
        ]
    },
    {
        "title": "The Infiltrator",
        "year": 2016,
        "cast": [
            "Bryan Cranston",
            "Diane Kruger",
            "John Leguizamo"
        ],
        "poster_img_url": "https://upload.wikimedia.org/wikipedia/en/4/4b/The_Infiltrator_%282016_film%29.png",
        "genres": [
            "Crime",
            "Drama"
        ]
    },
    {
        "title": "Hollywoodland",
        "year": 2006,
        "cast": [
            "Adrien Brody",
            "Diane Lane",
            "Ben Affleck"
        ],
        "poster_img_url": "https://upload.wikimedia.org/wikipedia/en/1/1e/Hollywoodland_film.jpg",
        "genres": [
            "Biography",
            "Crime"
        ]
    },
    {
        "title": "Miss Congeniality 2: Armed and Fabulous",
        "year": 2005,
        "cast": [
            "Sandra Bullock",
            "Regina King"
        ],
        "poster_img_url": "https://upload.wikimedia.org/wikipedia/en/4/44/Miss_Congeniality_2.jpg",
        "genres": [
            "Comedy",
            "Crime"
        ]
    },
    {
        "title": "Starsky & Hutch",
        "year": 2004,
        "cast": [
            "Ben Stiller",
            "Owen Wilson",
            "Vince Vaughn",
            "Snoop Dogg",
            "Juliette Lewis",
            "Amy Smart",
            "Carmen Electra"
        ],
        "poster_img_url": "https://upload.wikimedia.org/wikipedia/en/4/4c/Starsky_and_hutch.jpg",
        "genres": [
            "Crime",
            "Comedy"
        ]
    },
    {
        "title": "Spartan",
        "year": 2004,
        "cast": [
            "Val Kilmer",
            "Derek Luke",
            "William H. Macy"
        ],
        "poster_img_url": "https://upload.wikimedia.org/wikipedia/en/9/92/Spartan_movie.jpg",
        "genres": [
            "Crime",
            "Drama"
        ]
    },
    {
        "title": "Super Size Me",
        "year": 2004,
        "cast": [
            "30-day period of eating food only from",
            "McDonald's"
        ],
        "poster_img_url": "https://upload.wikimedia.org/wikipedia/en/6/6a/Super_Size_Me_Poster.jpg",
        "genres": [
            "Documentary"
        ]
    },
    {
        "title": "Some Kind of Monster",
        "year": 2004,
        "cast": [
            "the band",
            "Metallica"
        ],
        "poster_img_url": "https://upload.wikimedia.org/wikipedia/en/4/45/Some_kind_of_minster_%28film%29.jpg",
        "genres": [
            "Documentary"
        ]
    },
    {
        "title": "Tying the Knot",
        "year": 2004,
        "cast": [
            "same-sex marriage in the United States"
        ],
        "poster_img_url": "https://m.media-amazon.com/images/M/MV5BNTA2NDU1NTY4Ml5BMl5BanBnXkFtZTcwODcwMjcyMQ@@._V1_QL75_UX100_CR0,0,100,148_.jpg",
        "genres": [
            "Documentary"
        ]
    },
    {
        "title": "Aliens of the Deep",
        "year": 2005,
        "cast": [
            "the",
            "Mid-Ocean Ridge"
        ],
        "poster_img_url": "https://upload.wikimedia.org/wikipedia/en/3/33/Aliens_of_the_Deep_poster.JPG",
        "genres": [
            "Documentary"
        ]
    },
    {
        "title": "Favela Rising",
        "year": 2005,
        "cast": [
            "the life in a",
            "favela"
        ],
        "poster_img_url": "https://upload.wikimedia.org/wikipedia/en/c/cd/FavelaRising.jpg",
        "genres": [
            "Documentary"
        ]
    },
    {
        "title": "Enron: The Smartest Guys in the Room",
        "year": 2005,
        "cast": [
            "the",
            "Enron scandal"
        ],
        "poster_img_url": "https://upload.wikimedia.org/wikipedia/en/0/08/Smartestguysintheroom.jpg",
        "genres": [
            "Documentary"
        ]
    },
    {
        "title": "The Great Warming",
        "year": 2006,
        "cast": [
            "climate change"
        ],
        "poster_img_url": "https://upload.wikimedia.org/wikipedia/en/8/83/Cover_of_the_movie_The_Great_Warming.jpg",
        "genres": [
            "Documentary"
        ]
    },
    {
        "title": "The Good German",
        "year": 2006,
        "cast": [
            "George Clooney",
            "Cate Blanchett",
            "Tobey Maguire"
        ],
        "poster_img_url": "https://upload.wikimedia.org/wikipedia/en/c/c4/Good_german.jpg",
        "genres": [
            "Drama",
            "War"
        ]
    },
    {
        "title": "Goya's Ghosts",
        "year": 2006,
        "cast": [
            "Natalie Portman",
            "Javier Bardem",
            "Stellan Skarsgård"
        ],
        "poster_img_url": "https://upload.wikimedia.org/wikipedia/en/6/66/Goyas_ghosts.jpg",
        "genres": [
            "Drama"
        ]
    },
    {
        "title": "Hoot",
        "year": 2006,
        "cast": [
            "Luke Wilson",
            "Brie Larson",
            "Logan Lerman",
            "Cody Linley"
        ],
        "poster_img_url": "https://upload.wikimedia.org/wikipedia/en/6/6d/Hoot_film.jpg",
        "genres": [
            "Family"
        ]
    },
    {
        "title": "The Nativity Story",
        "year": 2006,
        "cast": [
            "Keisha Castle-Hughes",
            "Shohreh Aghdashloo"
        ],
        "poster_img_url": "https://m.media-amazon.com/images/M/MV5BMTc0MDM4MzM4Nl5BMl5BanBnXkFtZTcwNTczNzUzMQ@@._V1_QL75_UX100_CR0,0,100,148_.jpg",
        "genres": [
            "Family"
        ]
    },
    {
        "title": "Saving Shiloh",
        "year": 2006,
        "cast": [
            "Scott Wilson",
            "Gerald McRaney"
        ],
        "poster_img_url": "https://upload.wikimedia.org/wikipedia/en/6/63/Saving_shiloh.jpg",
        "genres": [
            "Family"
        ]
    },
    {
        "title": "Alice Upside Down",
        "year": 2007,
        "cast": [
            "Alyson Stoner",
            "Lucas Grabeel",
            "Luke Perry",
            "Penny Marshall",
            "Ashley Drane",
            "Parker McKenna Posey"
        ],
        "poster_img_url": "https://upload.wikimedia.org/wikipedia/en/e/ef/Alice_Upside_Down.jpg",
        "genres": [
            "Adventure",
            "Comedy",
            "Drama",
            "Family"
        ]
    },
    {
        "title": "Alvin and the Chipmunks",
        "year": 2007,
        "cast": [
            "Jason Lee",
            "Ross Bagdasarian Jr.",
            "Janice Karman",
            "David Cross",
            "Justin Long",
            "Matthew Gray Gubler",
            "Jesse McCartney"
        ],
        "poster_img_url": "https://upload.wikimedia.org/wikipedia/en/d/dc/Alvin_and_the_Chipmunks2007.jpg",
        "genres": [
            "Family",
            "Musical"
        ]
    },
    {
        "title": "August Rush",
        "year": 2007,
        "cast": [
            "Freddie Highmore",
            "Jonathan Rhys Meyers",
            "Keri Russell",
            "Terrence Howard",
            "Robin Williams"
        ],
        "poster_img_url": "https://upload.wikimedia.org/wikipedia/en/1/1b/August_rush_poster.jpg",
        "genres": [
            "Family",
            "Musical"
        ]
    },
    {
        "title": "Bratz: The Movie",
        "year": 2007,
        "cast": [
            "Nathalia Ramos",
            "Skyler Shaye",
            "Logan Browning",
            "Janel Parrish",
            "Chelsea Staub",
            "Lainie Kazan",
            "Jon Voight"
        ],
        "poster_img_url": "https://upload.wikimedia.org/wikipedia/en/f/fb/Bratz_The_Movie_poster.jpg",
        "genres": [
            "Comedy",
            "Family"
        ]
    },
    {
        "title": "Bridge to Terabithia",
        "year": 2007,
        "cast": [
            "Josh Hutcherson",
            "AnnaSophia Robb",
            "Zooey Deschanel",
            "Robert Patrick"
        ],
        "poster_img_url": "https://upload.wikimedia.org/wikipedia/en/b/bd/Bridgetoterabithiaposter.jpg",
        "genres": [
            "Family",
            "Fantasy"
        ]
    },
    {
        "title": "Enchanted",
        "year": 2007,
        "cast": [
            "Amy Adams",
            "Patrick Dempsey",
            "James Marsden",
            "Susan Sarandon"
        ],
        "poster_img_url": "https://upload.wikimedia.org/wikipedia/en/2/2a/Enchantedposter.jpg",
        "genres": [
            "Fantasy"
        ]
    },
    {
        "title": "Beowulf",
        "year": 2007,
        "cast": [
            "Ray Winstone",
            "Anthony Hopkins",
            "John Malkovich",
            "Robin Wright Penn",
            "Angelina Jolie"
        ],
        "poster_img_url": "https://upload.wikimedia.org/wikipedia/en/5/54/Beowulf_%282007_film%29.png",
        "genres": [
            "Fantasy"
        ]
    },
    {
        "title": "Stranger Than Fiction",
        "year": 2006,
        "cast": [
            "Will Ferrell",
            "Emma Thompson"
        ],
        "poster_img_url": "https://upload.wikimedia.org/wikipedia/en/f/ff/Stranger_Than_Fiction_%282006_movie_poster%29.jpg",
        "genres": [
            "Fantasy"
        ]
    },
    {
        "title": "Pan's Labyrinth",
        "year": 2006,
        "cast": [
            "Ivana Baquero",
            "Doug Jones",
            "Sergi López"
        ],
        "poster_img_url": "https://upload.wikimedia.org/wikipedia/en/6/67/Pan%27s_Labyrinth.jpg",
        "genres": [
            "Fantasy"
        ]
    },
    {
        "title": "The Santa Clause 3: The Escape Clause",
        "year": 2006,
        "cast": [
            "Tim Allen",
            "Martin Short"
        ],
        "poster_img_url": "https://upload.wikimedia.org/wikipedia/en/6/61/The_Santa_Clause_3_-_The_Escape_Clause_%28DVD_cover_art%29.jpg",
        "genres": [
            "Fantasy"
        ]
    },
    {
        "title": "The Golden Compass",
        "year": 2007,
        "cast": [
            "Dakota Blue Richards",
            "Nicole Kidman",
            "Daniel Craig",
            "Eva Green",
            "Ian McKellen"
        ],
        "poster_img_url": "https://upload.wikimedia.org/wikipedia/en/b/b6/The_Golden_Compass.jpg",
        "genres": [
            "Family",
            "Fantasy"
        ]
    },
    {
        "title": "Dead Man Down",
        "year": 2013,
        "cast": [
            "Colin Farrell",
            "Noomi Rapace",
            "Dominic Cooper",
            "Terrence Howard",
            "Isabelle Huppert"
        ],
        "poster_img_url": "https://upload.wikimedia.org/wikipedia/en/0/02/Dead_Man_Down_Theatrical_Poster.jpg",
        "genres": [
            "Crime",
            "Thriller",
            "Noir"
        ]
    },
    {
        "title": "Blade Runner 2049",
        "year": 2017,
        "cast": [
            "Harrison Ford",
            "Ryan Gosling",
            "Ana de Armas",
            "Mackenzie Davis",
            "Sylvia Hoeks",
            "Lennie James",
            "Carla Juri",
            "Robin Wright",
            "Dave Bautista",
            "Jared Leto"
        ],
        "poster_img_url": "https://upload.wikimedia.org/wikipedia/en/9/9b/Blade_Runner_2049_poster.png",
        "genres": [
            "Noir",
            "Science Fiction",
            "Thriller",
            "Mystery"
        ]
    },
    {
        "title": "Serenity",
        "year": 2018,
        "cast": [
            "Matthew McConaughey",
            "Anne Hathaway",
            "Diane Lane",
            "Jason Clarke",
            "Djimon Hounsou",
            "Jeremy Strong"
        ],
        "poster_img_url": "https://upload.wikimedia.org/wikipedia/en/9/9e/Serenity_One_Sheet.jpg",
        "genres": [
            "Noir",
            "Thriller",
            "Drama"
        ]
    },
    {
        "title": "Under the Silver Lake",
        "year": 2018,
        "cast": [
            "Andrew Garfield",
            "Riley Keough",
            "Topher Grace",
            "Zosia Mamet",
            "Jimmi Simpson",
            "Luke Baines",
            "Patrick Fischler"
        ],
        "poster_img_url": "https://upload.wikimedia.org/wikipedia/en/9/91/Under_the_Silver_Lake.png",
        "genres": [
            "Noir",
            "Crime",
            "Thriller"
        ]
    },
    {
        "title": "Twilight",
        "year": 1998,
        "cast": [
            "Paul Newman",
            "Gene Hackman",
            "Susan Sarandon",
            "James Garner",
            "Reese Witherspoon",
            "Stockard Channing",
            "Liev Schreiber"
        ],
        "poster_img_url": "https://upload.wikimedia.org/wikipedia/en/b/b6/Twilight_%282008_film%29_poster.jpg",
        "genres": [
            "Noir"
        ]
    },
    {
        "title": "Brick",
        "year": 2005,
        "cast": [
            "Joseph Gordon-Levitt",
            "Emilie de Ravin",
            "Nora Zehetner"
        ],
        "poster_img_url": "https://upload.wikimedia.org/wikipedia/en/7/73/Brickmovieposter.jpg",
        "genres": [
            "Noir"
        ]
    },
    {
        "title": "John Wick: Chapter 2",
        "year": 2017,
        "cast": [
            "Keanu Reeves",
            "Common",
            "Bridget Moynahan",
            "Ian McShane",
            "John Leguizamo",
            "Ruby Rose",
            "Laurence Fishburne"
        ],
        "poster_img_url": "https://upload.wikimedia.org/wikipedia/en/3/31/John_Wick_Chapter_Two.png",
        "genres": [
            "Noir",
            "Action",
            "Thriller"
        ]
    },
    {
        "title": "Bornless Ones",
        "year": 2017,
        "cast": [
            "Michael Johnston",
            "Margaret Judson",
            "Bobby T",
            "Lana Titova",
            "Victoria Clare",
            "Devin Goodsell",
            "Gwen Holloway",
            "Mark Furze",
            "Greg Travis",
            "Nick Saso",
            "Rob Tepper",
            "David Banks"
        ],
        "poster_img_url": "https://m.media-amazon.com/images/M/MV5BMzk1NDI2MzM4MV5BMl5BanBnXkFtZTgwODAzNDAwMTI@._V1_QL75_UY148_CR3,0,100,148_.jpg",
        "genres": [
            "Horror"
        ]
    },
    {
        "title": "The Witch",
        "year": 2016,
        "cast": [
            "Anya Taylor-Joy",
            "Ralph Ineson",
            "Kate Dickie"
        ],
        "poster_img_url": "https://upload.wikimedia.org/wikipedia/en/b/bf/The_Witch_poster.png",
        "genres": [
            "Horror"
        ]
    },
    {
        "title": "The Other Side of the Door",
        "year": 2016,
        "cast": [
            "Sarah Wayne Callies",
            "Jeremy Sisto"
        ],
        "poster_img_url": "https://upload.wikimedia.org/wikipedia/en/2/2c/The_Other_Side_of_the_Door_2016.jpg",
        "genres": [
            "Horror"
        ]
    },
    {
        "title": "Da Sweet Blood of Jesus",
        "year": 2015,
        "cast": [
            "Felicia Pearson",
            "Zaraah Abrahams",
            "Elvis Nolasco",
            "Steven Hauck"
        ],
        "poster_img_url": "https://upload.wikimedia.org/wikipedia/en/6/67/Da_Sweet_Blood_Of_Jesus_%282014%29.jpg",
        "genres": [
            "Horror",
            "Comedy"
        ]
    },
    {
        "title": "Rebound",
        "year": 2014,
        "cast": [
            "Kevin Bulla",
            "Ashley James",
            "Dan Sutter"
        ],
        "poster_img_url": "https://upload.wikimedia.org/wikipedia/en/3/36/Rebound_film.jpg",
        "genres": [
            "Horror"
        ]
    },
    {
        "title": "Deliver Us from Evil",
        "year": 2014,
        "cast": [
            "Eric Bana",
            "Édgar Ramírez",
            "Olivia Munn",
            "Sean Harris"
        ],
        "poster_img_url": "https://upload.wikimedia.org/wikipedia/en/b/b4/Deliver_Us_from_Evil_%282014_film%29_poster.jpg",
        "genres": [
            "Horror"
        ]
    },
    {
        "title": "As Above, So Below",
        "year": 2014,
        "cast": [
            "Perdita Weeks",
            "Ben Feldman",
            "Edwin Hodge",
            "François Civil"
        ],
        "poster_img_url": "https://upload.wikimedia.org/wikipedia/en/3/3c/As_Above%2C_So_Below_Poster.jpg",
        "genres": [
            "Horror"
        ]
    },
    {
        "title": "Tusk",
        "year": 2014,
        "cast": [
            "Michael Parks",
            "Justin Long",
            "Haley Joel Osment",
            "Johnny Depp"
        ],
        "poster_img_url": "https://upload.wikimedia.org/wikipedia/en/4/44/Tusk_%282014_film%29_poster.jpg",
        "genres": [
            "Horror",
            "Comedy"
        ]
    },
    {
        "title": "The Mummy",
        "year": 2017,
        "cast": [
            "Tom Cruise",
            "Russell Crowe",
            "Sofia Boutella",
            "Annabelle Wallis",
            "Jake Johnson",
            "Marwan Kenzari",
            "Courtney B. Vance"
        ],
        "poster_img_url": "https://upload.wikimedia.org/wikipedia/en/a/a2/The_Mummy_%282017%29.jpg",
        "genres": [
            "Action",
            "Adventure",
            "Fantasy",
            "Horror"
        ]
    },
    {
        "title": "It Comes at Night",
        "year": 2017,
        "cast": [
            "Joel Edgerton",
            "Riley Keough",
            "Christopher Abbott",
            "Kelvin Harrison Jr.",
            "Carmen Ejogo"
        ],
        "poster_img_url": "https://upload.wikimedia.org/wikipedia/en/e/e9/It_Comes_at_Night.png",
        "genres": [
            "Horror",
            "Mystery"
        ]
    },
    {
        "title": "47 Meters Down",
        "year": 2017,
        "cast": [
            "Mandy Moore",
            "Claire Holt",
            "Matthew Modine"
        ],
        "poster_img_url": "https://upload.wikimedia.org/wikipedia/en/e/e5/47_Meters_Down_%282017%29_Theatrical_Release_Poster.png",
        "genres": [
            "Horror"
        ]
    },
    {
        "title": "My Little Pony: The Movie",
        "year": 2017,
        "cast": [
            "Tara Strong",
            "Ashleigh Ball",
            "Andrea Libman",
            "Tabitha St. Germain",
            "Cathy Weseluck",
            "Kristin Chenoweth",
            "Emily Blunt",
            "Michael Peña",
            "Uzo Aduba",
            "Liev Schreiber",
            "Taye Diggs",
            "Sia",
            "Zoe Saldana"
        ],
        "poster_img_url": "https://upload.wikimedia.org/wikipedia/en/a/a5/My_Little_Pony_The_Movie_Poster_2.jpg",
        "genres": [
            "Animated",
            "Adventure",
            "Comedy",
            "Family",
            "Fantasy",
            "Musical"
        ]
    },
    {
        "title": "Coco",
        "year": 2017,
        "cast": [
            "Anthony Gonzalez",
            "Gael García Bernal",
            "Benjamin Bratt",
            "Renée Victor",
            "Ana Ofelia Murguia",
            "Edward James Olmos"
        ],
        "poster_img_url": "https://upload.wikimedia.org/wikipedia/en/9/98/Coco_%282017_film%29_poster.jpg",
        "genres": [
            "Animated",
            "Musical",
            "Fantasy",
            "Mystery"
        ]
    },
    {
        "title": "The Greatest Showman",
        "year": 2017,
        "cast": [
            "Hugh Jackman",
            "Zac Efron",
            "Rebecca Ferguson",
            "Michelle Williams",
            "Yahya Abdul-Mateen II",
            "Zendaya"
        ],
        "poster_img_url": "https://upload.wikimedia.org/wikipedia/en/1/10/The_Greatest_Showman_poster.png",
        "genres": [
            "Biography",
            "Musical",
            "Drama"
        ]
    },
    {
        "title": "Pitch Perfect 3",
        "year": 2017,
        "cast": [
            "Anna Kendrick",
            "Anna Camp",
            "Rebel Wilson",
            "Brittany Snow",
            "Hailee Steinfeld",
            "Alexis Knapp",
            "Ester Dean",
            "Hana Mae Lee",
            "Chrissie Fit",
            "Kelley Jakle",
            "Shelley Regner"
        ],
        "poster_img_url": "https://upload.wikimedia.org/wikipedia/en/c/c8/Pitch_Perfect_3.jpg",
        "genres": [
            "Musical",
            "Comedy"
        ]
    },
    {
        "title": "Forever My Girl",
        "year": 2018,
        "cast": [
            "Alex Roe",
            "Jessica Rothe",
            "John Benjamin Hickey"
        ],
        "poster_img_url": "https://upload.wikimedia.org/wikipedia/en/9/94/ForeverMyGirlposter.jpg",
        "genres": [
            "Romance",
            "Musical",
            "Drama"
        ]
    },
    {
        "title": "Mamma Mia! Here We Go Again",
        "year": 2018,
        "cast": [
            "Lily James",
            "Amanda Seyfried",
            "Pierce Brosnan",
            "Colin Firth",
            "Stellan Skarsgård",
            "Julie Walters",
            "Christine Baranski",
            "Dominic Cooper",
            "Meryl Streep",
            "Cher",
            "Andy García"
        ],
        "poster_img_url": "https://upload.wikimedia.org/wikipedia/en/b/be/Mamma_Mia%21_Here_We_Go_Again.png",
        "genres": [
            "Romance",
            "Musical",
            "Comedy"
        ]
    },
    {
        "title": "Bohemian Rhapsody",
        "year": 2018,
        "cast": [
            "Rami Malek",
            "Lucy Boynton",
            "Gwilym Lee",
            "Ben Hardy",
            "Joseph Mazzello",
            "Aidan Gillen",
            "Tom Hollander",
            "Allen Leech",
            "Mike Myers"
        ],
        "poster_img_url": "https://upload.wikimedia.org/wikipedia/en/2/2e/Bohemian_Rhapsody_poster.png",
        "genres": [
            "Biography",
            "Drama",
            "Musical"
        ]
    },
    {
        "title": "Mary Poppins Returns",
        "year": 2018,
        "cast": [
            "Emily Blunt",
            "Lin-Manuel Miranda",
            "Ben Whishaw",
            "Emily Mortimer",
            "Julie Walters",
            "Colin Firth",
            "Meryl Streep",
            "Dick Van Dyke",
            "Angela Lansbury"
        ],
        "poster_img_url": "https://upload.wikimedia.org/wikipedia/en/4/48/Mary_Poppins_Returns_%282018_film_poster%29.png",
        "genres": [
            "Musical",
            "Fantasy"
        ]
    },
    {
        "title": "Holmes and Watson",
        "year": 2018,
        "cast": [
            "Will Ferrell",
            "John C. Reilly",
            "Rebecca Hall",
            "Ralph Fiennes",
            "Rob Brydon",
            "Kelly Macdonald",
            "Lauren Lapkus",
            "Hugh Laurie"
        ],
        "poster_img_url": "https://upload.wikimedia.org/wikipedia/en/1/1d/Holmes_%26_Watson.png",
        "genres": [
            "Action",
            "Mystery",
            "Comedy"
        ]
    },
    {
        "title": "Killing Me Softly",
        "year": 2002,
        "cast": [],
        "poster_img_url": "https://upload.wikimedia.org/wikipedia/en/1/12/Killing_Me_Softly_%28film%29.jpg",
        "genres": [
            "Drama",
            "Mystery",
            "Romance"
        ]
    },
    {
        "title": "Gosford Park",
        "year": 2001,
        "cast": [
            "Michael Gambon",
            "Kristin Scott Thomas",
            "Maggie Smith",
            "Helen Mirren",
            "Alan Bates",
            "Bob Balaban",
            "Clive Owen"
        ],
        "poster_img_url": "https://upload.wikimedia.org/wikipedia/en/e/e3/Gosford_Park_movie.jpg",
        "genres": [
            "Mystery",
            "Comedy"
        ]
    },
    {
        "title": "Angels & Demons",
        "year": 2009,
        "cast": [
            "Tom Hanks",
            "Ayelet Zurer",
            "Ewan McGregor",
            "Stellan Skarsgård",
            "Armin Mueller-Stahl",
            "Pierfrancesco Favino",
            "Nikolaj Lie Kaas"
        ],
        "poster_img_url": "https://upload.wikimedia.org/wikipedia/en/4/44/Angels_and_demons.jpg",
        "genres": [
            "Adventure",
            "Mystery"
        ]
    },
    {
        "title": "All Good Things",
        "year": 2010,
        "cast": [
            "Ryan Gosling",
            "Kirsten Dunst",
            "Frank Langella",
            "Kristen Wiig",
            "Philip Baker Hall"
        ],
        "poster_img_url": "https://upload.wikimedia.org/wikipedia/en/c/c6/All_Good_Things_poster.jpg",
        "genres": [
            "Mystery"
        ]
    },
    {
        "title": "The Back-up Plan",
        "year": 2010,
        "cast": [
            "Jennifer Lopez",
            "Alex O'Loughlin",
            "Eric Christian Olsen",
            "Anthony Anderson",
            "Linda Lavin"
        ],
        "poster_img_url": "https://upload.wikimedia.org/wikipedia/en/d/d8/Newbupp.jpg",
        "genres": [
            "Romance",
            "Comedy"
        ]
    },
    {
        "title": "Blue Valentine",
        "year": 2010,
        "cast": [
            "Ryan Gosling",
            "Michelle Williams"
        ],
        "poster_img_url": "https://upload.wikimedia.org/wikipedia/en/0/04/Blue_Valentine_film.jpg",
        "genres": [
            "Romance",
            "Drama"
        ]
    },
    {
        "title": "Dear John",
        "year": 2010,
        "cast": [
            "Channing Tatum",
            "Amanda Seyfried",
            "Henry Thomas",
            "Scott Porter",
            "Richard Jenkins"
        ],
        "poster_img_url": "https://upload.wikimedia.org/wikipedia/en/3/35/Dear_John_film_poster.jpg",
        "genres": [
            "Romance",
            "Drama"
        ]
    },
    {
        "title": "The Twilight Saga: Eclipse",
        "year": 2010,
        "cast": [
            "Kristen Stewart",
            "Robert Pattinson",
            "Taylor Lautner",
            "Ashley Greene",
            "Peter Facinelli",
            "Elizabeth Reaser",
            "Kellan Lutz",
            "Nikki Reed",
            "Catalina Sandino Moreno",
            "Jackson Rathbone",
            "Bryce Dallas Howard",
            "Billy Burke",
            "Jodelle Ferland",
            "Dakota Fanning",
            "Xavier Samuel",
            "Julia Jones",
            "Jack Huston"
        ],
        "poster_img_url": "https://upload.wikimedia.org/wikipedia/en/d/d7/Eclipse_Theatrical_One-Sheet.jpg",
        "genres": [
            "Fantasy",
            "Romance"
        ]
    },
    {
        "title": "Hot Tub Time Machine",
        "year": 2010,
        "cast": [
            "John Cusack",
            "Rob Corddry",
            "Craig Robinson",
            "Clark Duke",
            "Crispin Glover",
            "Lizzy Caplan",
            "Chevy Chase"
        ],
        "poster_img_url": "https://upload.wikimedia.org/wikipedia/en/6/64/Hot_tub_time_machine_poster.jpg",
        "genres": [
            "Comedy",
            "Science Fiction"
        ]
    },
    {
        "title": "Babylon A.D.",
        "year": 2008,
        "cast": [
            "Vin Diesel",
            "Michelle Yeoh",
            "Melanie Thierry",
            "Lambert Wilson",
            "Mark Strong",
            "Charlotte Rampling",
            "Gérard Depardieu"
        ],
        "poster_img_url": "https://upload.wikimedia.org/wikipedia/en/1/1c/Babylon_AD_poster.jpg",
        "genres": [
            "Science Fiction",
            "Thriller"
        ]
    },
    {
        "title": "Transformers",
        "year": 2007,
        "cast": [
            "Shia LaBeouf",
            "Megan Fox",
            "Josh Duhamel",
            "Tyrese Gibson"
        ],
        "poster_img_url": "https://upload.wikimedia.org/wikipedia/en/6/66/Transformers07.jpg",
        "genres": [
            "Science Fiction"
        ]
    },
    {
        "title": "Slipstream",
        "year": 2007,
        "cast": [
            "Anthony Hopkins"
        ],
        "poster_img_url": "https://upload.wikimedia.org/wikipedia/en/b/be/Slipstreampost07.jpg",
        "genres": [
            "Science Fiction"
        ]
    },
    {
        "title": "Socket",
        "year": 2007,
        "cast": [
            "Derek Long",
            "Alexandra Billings"
        ],
        "poster_img_url": "https://upload.wikimedia.org/wikipedia/en/c/ca/Socket-2007-film.jpg",
        "genres": [
            "Science Fiction"
        ]
    },
    {
        "title": "The Last Mimzy",
        "year": 2007,
        "cast": [
            "Rhiannon Leigh Wryn",
            "Chris O'Neil",
            "Rainn Wilson",
            "Joely Richardson"
        ],
        "poster_img_url": "https://upload.wikimedia.org/wikipedia/en/b/b3/The_Last_Mimzy.jpg",
        "genres": [
            "Family",
            "Science Fiction"
        ]
    },
    {
        "title": "Next",
        "year": 2007,
        "cast": [
            "Nicolas Cage",
            "Julianne Moore",
            "Jessica Biel"
        ],
        "poster_img_url": "https://upload.wikimedia.org/wikipedia/en/2/2e/Next_poster.jpg",
        "genres": [
            "Science Fiction"
        ]
    },
    {
        "title": "Race",
        "year": 2016,
        "cast": [
            "Stephan James",
            "Jason Sudeikis",
            "Jeremy Irons"
        ],
        "poster_img_url": "https://upload.wikimedia.org/wikipedia/en/0/02/Race_2016_film_poster.jpg",
        "genres": [
            "Sports",
            "Drama"
        ]
    },
    {
        "title": "Eddie the Eagle",
        "year": 2016,
        "cast": [
            "Taron Egerton",
            "Hugh Jackman",
            "Christopher Walken"
        ],
        "poster_img_url": "https://upload.wikimedia.org/wikipedia/en/4/4f/Eddie_the_Eagle_poster.png",
        "genres": [
            "Sports",
            "Drama",
            "Comedy"
        ]
    },
    {
        "title": "Everybody Wants Some!!",
        "year": 2016,
        "cast": [
            "Will Brittain",
            "Blake Jenner",
            "Zoey Deutch",
            "Tyler Hoechlin"
        ],
        "poster_img_url": "https://upload.wikimedia.org/wikipedia/en/b/b7/Everybody_Wants_Some_poster.png",
        "genres": [
            "Sports",
            "Comedy"
        ]
    },
    {
        "title": "Hands of Stone",
        "year": 2016,
        "cast": [
            "Édgar Ramírez",
            "Robert De Niro"
        ],
        "poster_img_url": "https://upload.wikimedia.org/wikipedia/en/c/cd/Hands_of_Stone.png",
        "genres": [
            "Sports"
        ]
    },
    {
        "title": "Cars 3",
        "year": 2017,
        "cast": [
            "Owen Wilson",
            "Larry the Cable Guy",
            "Bonnie Hunt",
            "Cheech Marin",
            "Michael Wallis",
            "Cristela Alonzo",
            "Armie Hammer",
            "Paul Dooley"
        ],
        "poster_img_url": "https://upload.wikimedia.org/wikipedia/en/9/94/Cars_3_poster.jpg",
        "genres": [
            "Animated",
            "Sports",
            "Comedy",
            "Drama"
        ]
    },
    {
        "title": "Battle of the Sexes",
        "year": 2017,
        "cast": [
            "Emma Stone",
            "Steve Carell",
            "Andrea Riseborough",
            "Elisabeth Shue",
            "Austin Stowell",
            "Sarah Silverman",
            "Alan Cumming"
        ],
        "poster_img_url": "https://upload.wikimedia.org/wikipedia/en/2/29/Battle_of_the_Sexes_%28film%29.png",
        "genres": [
            "Biography",
            "Sports",
            "Comedy",
            "Drama"
        ]
    },
    {
        "title": "The Miracle Season",
        "year": 2018,
        "cast": [
            "Helen Hunt",
            "William Hurt",
            "Erin Moriarty",
            "Danika Yarosh"
        ],
        "poster_img_url": "https://upload.wikimedia.org/wikipedia/en/3/32/The_Miracle_Season.png",
        "genres": [
            "Drama",
            "Sports"
        ]
    },
    {
        "title": "Uncle Drew",
        "year": 2018,
        "cast": [
            "Kyrie Irving",
            "Lil Rel Howery",
            "Shaquille O'Neal",
            "Reggie Miller",
            "Nate Robinson",
            "Chris Webber",
            "Erica Ash",
            "Lisa Leslie",
            "Nick Kroll",
            "Tiffany Haddish"
        ],
        "poster_img_url": "https://upload.wikimedia.org/wikipedia/en/3/30/Uncle_Drew_poster.png",
        "genres": [
            "Comedy",
            "Family",
            "Sports"
        ]
    },
    {
        "title": "Creed II",
        "year": 2018,
        "cast": [
            "Michael B. Jordan",
            "Sylvester Stallone",
            "Tessa Thompson",
            "Dolph Lundgren",
            "Florian Munteanu",
            "Phylicia Rashad",
            "Andre Ward",
            "Wood Harris",
            "Brigitte Nielsen"
        ],
        "poster_img_url": "https://upload.wikimedia.org/wikipedia/en/9/90/Creed_II_poster.png",
        "genres": [
            "Sports",
            "Drama"
        ]
    },
    {
        "title": "Angels in the Endzone",
        "year": 1997,
        "cast": [
            "Christopher Lloyd",
            "Paul Dooley"
        ],
        "poster_img_url": "https://upload.wikimedia.org/wikipedia/en/0/0c/Angels_in_the_Endzone.jpg",
        "genres": [
            "Fantasy",
            "Sports"
        ]
    },
    {
        "title": "Black Scorpion II: Aftershock",
        "year": 1997,
        "cast": [
            "Joan Severance",
            "Whip Hubley"
        ],
        "poster_img_url": "https://upload.wikimedia.org/wikipedia/en/d/d8/BlackScorpionIIDVD.jpg",
        "genres": [
            "Superhero"
        ]
    },
    {
        "title": "Mystery Men",
        "year": 1999,
        "cast": [
            "Ben Stiller",
            "Hank Azaria",
            "William H. Macy",
            "Janeane Garofalo",
            "Wes Studi",
            "Paul Reubens",
            "Kel Mitchell",
            "Greg Kinnear",
            "Geoffrey Rush",
            "Lena Olin",
            "Claire Forlani",
            "Tom Waits"
        ],
        "poster_img_url": "https://upload.wikimedia.org/wikipedia/en/c/ca/Mystery_Men_film_poster.jpg",
        "genres": [
            "Superhero",
            "Comedy"
        ]
    },
    {
        "title": "Spider-Man",
        "year": 2002,
        "cast": [
            "Tobey Maguire",
            "Willem Dafoe",
            "Kirsten Dunst",
            "James Franco",
            "Cliff Robertson",
            "Rosemary Harris",
            "J. K. Simmons"
        ],
        "poster_img_url": "https://upload.wikimedia.org/wikipedia/en/f/f3/Spider-Man2002Poster.jpg",
        "genres": [
            "Superhero"
        ]
    },
    {
        "title": "Daredevil",
        "year": 2003,
        "cast": [
            "Ben Affleck",
            "Jennifer Garner",
            "Michael Clarke Duncan",
            "Colin Farrell",
            "Jon Favreau",
            "Joe Pantoliano",
            "David Keith"
        ],
        "poster_img_url": "https://upload.wikimedia.org/wikipedia/en/0/04/Daredevil_poster.JPG",
        "genres": [
            "Superhero"
        ]
    },
    {
        "title": "The League of Extraordinary Gentlemen",
        "year": 2003,
        "cast": [
            "Sean Connery",
            "Naseeruddin Shah",
            "Peta Wilson",
            "Tony Curran",
            "Stuart Townsend",
            "Shane West",
            "Jason Flemyng",
            "Richard Roxburgh"
        ],
        "poster_img_url": "https://upload.wikimedia.org/wikipedia/en/5/53/The_league_of_Extraordinary_Gentlemen_movie.jpg",
        "genres": [
            "Superhero"
        ]
    },
    {
        "title": "X2: X-Men United",
        "year": 2003,
        "cast": [
            "Hugh Jackman",
            "Patrick Stewart",
            "Ian McKellen",
            "Famke Janssen",
            "Halle Berry",
            "Anna Paquin"
        ],
        "poster_img_url": "https://upload.wikimedia.org/wikipedia/en/3/3e/X2_poster.jpg",
        "genres": [
            "Superhero"
        ]
    },
    {
        "title": "Watchmen",
        "year": 2009,
        "cast": [
            "Jeffrey Dean Morgan",
            "Matthew Goode",
            "Patrick Wilson",
            "Malin Åkerman",
            "Billy Crudup",
            "Jackie Earl Haley",
            "Carla Gugino"
        ],
        "poster_img_url": "https://upload.wikimedia.org/wikipedia/en/b/bc/Watchmen_film_poster.jpg",
        "genres": [
            "Superhero"
        ]
    },
    {
        "title": "X-Men Origins: Wolverine",
        "year": 2009,
        "cast": [
            "Hugh Jackman",
            "Liev Schreiber",
            "Danny Huston",
            "will.i.am",
            "Lynn Collins",
            "Taylor Kitsch",
            "Ryan Reynolds",
            "Dominic Monaghan"
        ],
        "poster_img_url": "https://upload.wikimedia.org/wikipedia/en/0/08/X-Men_Origins_Wolverine_theatrical_poster.jpg",
        "genres": [
            "Action",
            "Adventure",
            "Superhero"
        ]
    },
    {
        "title": "The American",
        "year": 2010,
        "cast": [
            "George Clooney",
            "Violante Placido",
            "Thekla Reuten",
            "Paolo Bonacelli"
        ],
        "poster_img_url": "https://upload.wikimedia.org/wikipedia/en/b/b6/The_American_2010_poster.png",
        "genres": [
            "Drama",
            "Thriller"
        ]
    },
    {
        "title": "Allegiance",
        "year": 2012,
        "cast": [
            "Bow Wow"
        ],
        "poster_img_url": "https://upload.wikimedia.org/wikipedia/en/3/3e/Allegiance_poster.jpg",
        "genres": [
            "War",
            "Drama"
        ]
    },
    {
        "title": "Red Dawn",
        "year": 2012,
        "cast": [
            "Chris Hemsworth",
            "Josh Peck",
            "Josh Hutcherson",
            "Adrianne Palicki",
            "Isabel Lucas",
            "Connor Cruise",
            "Jeffrey Dean Morgan"
        ],
        "poster_img_url": "https://upload.wikimedia.org/wikipedia/en/9/97/Red_Dawn_FilmPoster.jpeg",
        "genres": [
            "Action",
            "War"
        ]
    },
    {
        "title": "Red Tails",
        "year": 2012,
        "cast": [
            "Cuba Gooding, Jr.",
            "Terrence Howard",
            "Daniela Ruah",
            "Bryan Cranston",
            "Nate Parker",
            "David Oyelowo",
            "Ryan Early",
            "Method Man",
            "Elijah Kelley",
            "Ne-Yo",
            "Tristan Wilds",
            "Kevin Phillips",
            "Robert Kazinsky",
            "Lee Tergesen",
            "Andre Royo",
            "Marcus T. Paulk",
            "Michael B. Jordan"
        ],
        "poster_img_url": "https://upload.wikimedia.org/wikipedia/en/1/1b/Red_Tails_Poster.jpg",
        "genres": [
            "Action",
            "Drama",
            "War"
        ]
    },
    {
        "title": "Thank You for Your Service",
        "year": 2017,
        "cast": [
            "Miles Teller",
            "Haley Bennett",
            "Beulah Koale",
            "Amy Schumer",
            "Scott Haze"
        ],
        "poster_img_url": "https://upload.wikimedia.org/wikipedia/en/4/45/Thank_You_for_Your_Service_%282017_movie_poster%29.jpg",
        "genres": [
            "Biography",
            "War",
            "Drama"
        ]
    },
    {
        "title": "Darkest Hour",
        "year": 2017,
        "cast": [
            "Gary Oldman",
            "Ben Mendelsohn",
            "Kristin Scott Thomas",
            "Lily James",
            "Stephen Dillane",
            "Ronald Pickup"
        ],
        "poster_img_url": "https://upload.wikimedia.org/wikipedia/en/3/38/Darkest_Hour_poster.png",
        "genres": [
            "Biography",
            "War",
            "Drama"
        ]
    },
    {
        "title": "Megan Leavey",
        "year": 2017,
        "cast": [
            "Kate Mara",
            "Edie Falco",
            "Common",
            "Ramón Rodríguez",
            "Tom Felton"
        ],
        "poster_img_url": "https://upload.wikimedia.org/wikipedia/en/0/07/MeganLeaveyPoster.jpg",
        "genres": [
            "Biography",
            "War"
        ]
    },
    {
        "title": "12 Strong",
        "year": 2018,
        "cast": [
            "Chris Hemsworth",
            "Michael Shannon",
            "Michael Peña",
            "Navid Negahban",
            "Trevante Rhodes",
            "Geoff Stults",
            "Thad Luckinbill",
            "Elsa Pataky",
            "Rob Riggle",
            "William Fichtner"
        ],
        "poster_img_url": "https://upload.wikimedia.org/wikipedia/en/d/d7/12_Strong_poster.jpg",
        "genres": [
            "War",
            "Drama"
        ]
    },
    {
        "title": "Dunkirk",
        "year": 2017,
        "cast": [
            "Fionn Whitehead",
            "Tom Hardy",
            "Cillian Murphy",
            "Mark Rylance",
            "Kenneth Branagh",
            "Harry Styles",
            "James D'Arcy",
            "Jack Lowden",
            "Kevin Guthrie"
        ],
        "poster_img_url": "https://upload.wikimedia.org/wikipedia/en/1/15/Dunkirk_Film_poster.jpg",
        "genres": [
            "Action",
            "War",
            "Drama",
            "Adventure",
            "Thriller"
        ]
    },
    {
        "title": "The Zookeeper's Wife",
        "year": 2017,
        "cast": [
            "Jessica Chastain",
            "Johan Heldenbergh",
            "Daniel Brühl",
            "Michael McElhatton"
        ],
        "poster_img_url": "https://upload.wikimedia.org/wikipedia/en/f/f1/The_Zookeepers_Wife.jpeg",
        "genres": [
            "War",
            "Drama"
        ]
    },
    {
        "title": "The Beguiled",
        "year": 2017,
        "cast": [
            "Colin Farrell",
            "Nicole Kidman",
            "Kirsten Dunst",
            "Elle Fanning",
            "Angourie Rice",
            "Oona Laurence"
        ],
        "poster_img_url": "https://upload.wikimedia.org/wikipedia/en/7/74/The_Beguiled_%282017_film%29.png",
        "genres": [
            "Drama",
            "Western"
        ]
    },
    {
        "title": "The Dark Tower",
        "year": 2017,
        "cast": [
            "Idris Elba",
            "Matthew McConaughey",
            "Tom Taylor",
            "Abbey Lee Kershaw",
            "Katheryn Winnick",
            "Jackie Earle Haley",
            "Claudia Kim"
        ],
        "poster_img_url": "https://upload.wikimedia.org/wikipedia/en/4/49/The_Dark_Tower_teaser_poster.jpg",
        "genres": [
            "Action",
            "Fantasy",
            "Adventure",
            "Horror",
            "Science Fiction",
            "Western"
        ]
    },
    {
        "title": "Hostiles",
        "year": 2017,
        "cast": [
            "Christian Bale",
            "Rosamund Pike",
            "Wes Studi",
            "Q'orianka Kilcher",
            "Ben Foster",
            "Adam Beach",
            "Rory Cochrane",
            "Jesse Plemons",
            "Timothée Chalamet"
        ],
        "poster_img_url": "https://upload.wikimedia.org/wikipedia/en/1/12/Hostiles_film_poster.jpg",
        "genres": [
            "Western"
        ]
    },
    {
        "title": "The Sisters Brothers",
        "year": 2018,
        "cast": [
            "John C. Reilly",
            "Joaquin Phoenix",
            "Jake Gyllenhaal",
            "Riz Ahmed"
        ],
        "poster_img_url": "https://upload.wikimedia.org/wikipedia/en/8/8d/The_Sisters_Brothers.png",
        "genres": [
            "Western",
            "Comedy"
        ]
    },
    {
        "title": "Last Stand at Saber River",
        "year": 1997,
        "cast": [
            "Tom Selleck",
            "Keith Carradine",
            "Haley Joel Osment"
        ],
        "poster_img_url": "https://upload.wikimedia.org/wikipedia/en/8/81/Last_Stand_at_Saber_River.jpg",
        "genres": [
            "Western"
        ]
    },
    {
        "title": "Painted Angels",
        "year": 1997,
        "cast": [
            "Brenda Fricker",
            "Kelly McGillis"
        ],
        "poster_img_url": "https://m.media-amazon.com/images/M/MV5BMTU3ODg2OTg0NV5BMl5BanBnXkFtZTcwNjE1MzkxMQ@@._V1_QL75_UY148_CR3,0,100,148_.jpg",
        "genres": [
            "Western"
        ]
    },
    {
        "title": "The Hi-Lo Country",
        "year": 1998,
        "cast": [
            "Billy Crudup",
            "Woody Harrelson",
            "Patricia Arquette",
            "Penélope Cruz",
            "Sam Elliott"
        ],
        "poster_img_url": "https://upload.wikimedia.org/wikipedia/en/b/b2/Poster_of_the_movie_The_Hi-Lo_Country.jpg",
        "genres": [
            "Western"
        ]
    },
    {
        "title": "American Outlaws",
        "year": 2001,
        "cast": [
            "Colin Farrell",
            "Scott Caan",
            "Ali Larter"
        ],
        "poster_img_url": "https://upload.wikimedia.org/wikipedia/en/3/3d/Americanoutlawsposter.jpg",
        "genres": [
            "Western"
        ]
    },
    {
        "title": "All the Pretty Horses",
        "year": 2000,
        "cast": [
            "Matt Damon",
            "Penélope Cruz",
            "Henry Thomas",
            "Lucas Black",
            "Rubén Blades",
            "Míriam Colón",
            "Bruce Dern"
        ],
        "poster_img_url": "https://upload.wikimedia.org/wikipedia/en/b/b0/All_the_Pretty_Horses_Poster.jpg",
        "genres": [
            "Western"
        ]
    },
    {
        "title": "Gang of Roses",
        "year": 2003,
        "cast": [
            "Lil' Kim",
            "LisaRaye McCoy",
            "Marie Matiko"
        ],
        "poster_img_url": "https://upload.wikimedia.org/wikipedia/en/a/ac/Gang_of_Roses_DVD.jpg",
        "genres": [
            "Drama",
            "Western"
        ]
    }
]
